{
    "ADFS": {
        "ClientId": "30bfc078-611e-4a23-a970-95202a088ab3",
        "DiscoveryDoc": "https://bbdadfs4.cf/adfs/.well-known/openid-configuration",
        "PostLogoutRedirectUri": "https://localhost:5000/"
    }
}