﻿{
    "buildOptions": {
        "emitEntryPoint": true,
        "preserveCompilationContext": true
    },

    "runtimeOptions": {
        "configProperties": {
            "System.GC.Server": true
        }
    },

    "dependencies": {
        "Microsoft.NETCore.App": {
            "version": "1.1.0",
            "type": "platform"
        },
        "Microsoft.AspNetCore.Diagnostics": "1.1.0",
        "Microsoft.AspNetCore.Mvc": "1.1.0",
        "Microsoft.AspNetCore.Mvc.TagHelpers": "1.1.0",
        "Microsoft.AspNetCore.Server.IISIntegration": "1.1.0",
        "Microsoft.AspNetCore.StaticFiles": "1.1.0",
        "Microsoft.Extensions.Configuration.FileExtensions": "1.1.0",
        "Microsoft.Extensions.Configuration.Json": "1.1.0",
        "Microsoft.Extensions.Logging": "1.1.0",
        "Microsoft.Extensions.Logging.Console": "1.1.0",
        "Microsoft.Extensions.Logging.Debug": "1.1.0",
        "Microsoft.AspNetCore.Authentication.Cookies": "1.1.0",
        "Microsoft.AspNetCore.Server.Kestrel": "1.1.0",
        "Microsoft.AspNetCore.Authentication.OpenIdConnect": "1.1.0",
        "Microsoft.VisualStudio.Web.BrowserLink.Loader": "14.1.0"
    },

    "frameworks": {
        "netcoreapp1.1": {
            "imports": [
                "dotnet5.6",
                "portable-net45+win8"
            ]
        }
    },

    "tools": {
        "Microsoft.AspNetCore.Server.IISIntegration.Tools": "1.1.0-preview4-final"
    },

    "publishOptions": {
        "include": [
            "wwwroot",
            "Views",
            "appsettings.json",
            "web.config"
        ]
    },

    "scripts": {
        "prepublish": [ "npm install", "bower install", "gulp clean", "gulp min" ],
        "postpublish": [ "dotnet publish-iis --publish-folder %publish:OutputPath%" ]
    }
}
